%YAML 1.1
%TAG !u! tag:unity3d.com,2011:
--- !u!114 &11400000
MonoBehaviour:
  m_ObjectHideFlags: 0
  m_CorrespondingSourceObject: {fileID: 0}
  m_PrefabInstance: {fileID: 0}
  m_PrefabAsset: {fileID: 0}
  m_GameObject: {fileID: 0}
  m_Enabled: 1
  m_EditorHideFlags: 0
  m_Script: {fileID: 11500000, guid: a4b898877289a9a4694d420ee7723c98, type: 3}
  m_Name: English
  m_EditorClassIdentifier: 
  LanguageType: 0
  PoliceSize_Title: 60
  PoliceSize_Text: 30
  Configure_InputFieldPlaceHolder_1: Player 1
  Configure_InputFieldPlaceHolder_2: Player 2
  Configure_InputFieldPlaceHolder_3: Player 3
  Configure_InputFieldPlaceHolder_4: Player 4
  HowToPlay_Title: How to play
  m_GameRules: "<size=125%>B</size>EGINNING OF THE GAME:\r\nIn turn, each player places
    his turtles on a stone on the game board.\nIt is prohibited to place a turtle
    on a stone directly adjacent to a stone already occupied by a turtle.\n\n<size=125%>G</size>AME
    TURN:\r\nAn action is drawn on Player 1's turn, it must be performed by all players.\r\nA
    new action is drawn each time a new game turn is played.\nThe different actions
    are as follow:\n\r\r\n<b><size=125%>S</size>tone destruction</b>\r\n- Each player
    removes a stone from the game board, not occupied by a turtle.\n\n<b><size=125%>M</size>oving
    stone</b>\r\n- Each player moves a stone to a nearby free space.\r\n- The moved
    stone can be occupied or not, as desired.\r\n- The stone must not go beyond the
    limits of the game board.\r\n- Each stone may only be moved once per turn.\n-
    If no stones can be moved, the action is ignored.\r\n\n<b><size=125%>T</size>urtle
    movement</b>\r\n- Each player moves all his turtles to a nearby unoccupied stone.\r\n-
    If movement is not possible, the turtle falls off the game board and is eliminated.\n\r\n<b><size=125%>T</size>urtle
    jump</b>\r\n- Each player moves all his turtles by jumping them over a location
    (occupied or not by a stone) to land on the next location in the same direction.\r\n-
    The final location must be an unoccupied stone.\r\n- If movement is not possible,
    the turtle falls off the game board and is eliminated.\n\n<size=125%>E</size>ND
    OF THE GAME:\nThe last player to have at least one turtle on the game board wins
    the game.\r"
  Settings_Title: Settings
  Settings_Music: Game music
  Settings_SFX: Game sounds
  Settings_Language: Language
  Credits_Title: Credits
  Credits_Text: "<size=125%>G</size>ame idea adapted from the <b><size=125%>E</size>lefantissimo</b>
    board game (<size=125%>C</size>ocktail <size=125%>G</size>ames).\n\n<size=125%>M</size>ain
    music: <b><size=125%>T</size>he <size=125%>C</size>ynic <size=125%>P</size>roject</b>
    (http://opengameart.org/users/cynicmusic)\n<size=125%>SFX</size> (mostly): <b><size=125%>D</size>ustyroom</b>
    (@dustyroomgames or dustyroom.com) \n\n<size=125%>T</size>urtle model and animations:
    <b><size=125%>A</size>corn <size=125%>B</size>ringer</b> (available on the Asset
    Store)"
  Button_Yes: Yes
  Button_No: No
  Button_HomeText: Are you sure you want to quit to main menu ?
  Button_RestartText: Are you sure you want to restart ?
  Button_QuitText: Are you sure you want to quit ?
  Action_Place: Place
  Action_Move: Move
  Action_Jump: Jump
  Action_Destroy: Destroy
  Action_Terrain: Terrain
  Action_Victory: Victory !
  Action_Turn: 'Turn #'
  Toast_Text: Press back again to exit.
  Tooltips_Play: Play
  Tooltips_Configure: Configure
  Tooltips_HowToPlay: Rules
  Tooltips_Settings: Settings
  Tooltips_Credits: Credits
  Tooltips_Quit: Quit
  Tooltips_Color: Pick a color
  Tooltips_ChangeNumberOfPlayers: Use the stones to set the number of players
  FirstTime_Title: Welcome!
  FirstTime_Text: '<size=125%>H</size>ello and thank you for downloading <size=125%>T</size>urtle
    <size=125%>R</size>oyale !


    Before you begin, don''t forget to check the rules of the game. You can find them
    in the "rules" panel, on the right side of the main menu.


    Please consider rating the app if you like it. Enjoy !'
  FirstTime_Language: Language
  FirstTime_Audio: Audio options
  FirstTime_Play: Play
  Loading: Loading ...
  RemainingCards: ' cards before shuffle'
  Tooltips_AI: Player/AI
  GameSpeed_Title: Game speed
  GameSpeed_Slow: Slow
  GameSpeed_Normal: Normal
  GameSpeed_Fast: Fast
