%YAML 1.1
%TAG !u! tag:unity3d.com,2011:
--- !u!1045 &1
EditorBuildSettings:
  m_ObjectHideFlags: 0
  serializedVersion: 2
  m_Scenes:
  - enabled: 1
    path: Assets/Scenes/Launch.unity
    guid: 6400ebb16596ef04eb9080fa7ec88ec1
  - enabled: 1
    path: Assets/Scenes/MainMenu.unity
    guid: ce863771a2cc2e042a616b5306d49878
  - enabled: 1
    path: Assets/Scenes/Play.unity
    guid: 65a21be16fb90184b9e0242ec8dccf38
  m_configObjects: {}
